22	consumes	1225
1827	produces	160
528	consumes	1341
1052	produces	36
805	consumes	1732
1484	produces	701
113	consumes	1836
2	consumes	1432
93	consumes	860
11	consumes	1384
383	consumes	1332
142	consumes	1439
936	produces	9
11	consumes	1278
1498	produces	34
463	consumes	1127
1526	produces	725
1449	produces	574
945	produces	23
1687	produces	785
83	consumes	1573
1448	produces	2
2	consumes	1730
564	consumes	1350
868	produces	104
434	consumes	1092
1739	produces	808
398	consumes	1085
1113	produces	338
78	consumes	1698
1545	produces	732
7	consumes	1613
1476	produces	2
607	consumes	1311
276	consumes	1794
1438	produces	607
866	produces	2
1405	produces	2
951	produces	244
1691	produces	14
887	produces	2
270	consumes	1743
1469	produces	2
1487	produces	2
972	produces	269
7	consumes	955
447	consumes	1095
208	consumes	1204
252	consumes	1228
1032	produces	337
1487	produces	316
385	consumes	1076
1456	produces	36
732	consumes	1668
1188	produces	34
973	produces	270
1714	produces	99
1569	produces	29
693	consumes	1470
1608	produces	758
215	consumes	937
845	produces	67
1040	produces	107
1326	produces	30
58	consumes	842
453	consumes	1104
1015	produces	2
483	consumes	1140
368	consumes	1058
1659	produces	775
847	produces	69
1516	produces	13
1756	produces	2
899	produces	152
1277	produces	30
1520	produces	36
1569	produces	30
22	consumes	1494
1639	produces	78
1668	produces	459
213	consumes	939
402	consumes	1257
1733	produces	34
3	consumes	1302
83	consumes	911
3	consumes	995
1461	produces	2
11	consumes	956
483	consumes	1780
1500	produces	23
2	consumes	1748
37	consumes	1401
562	consumes	1289
996	produces	23
195	consumes	1554
3	consumes	1528
953	produces	247
1081	produces	9
22	consumes	1097
1518	produces	31
1742	produces	9
1630	produces	23
552	consumes	1346
615	consumes	1359
1052	produces	3
902	produces	13
402	consumes	1319
1705	produces	13
457	consumes	1106
1265	produces	5
1451	produces	39
975	produces	2
711	consumes	1505
1493	produces	30
448	consumes	1256
38	consumes	1734
347	consumes	1042
1101	produces	30
2	consumes	1742
302	consumes	1299
535	consumes	1208
34	consumes	1767
322	consumes	1015
1255	produces	569
715	consumes	1511
644	consumes	1832
191	consumes	920
7	consumes	953
1841	produces	160
658	consumes	1406
1447	produces	2
3	consumes	931
1528	produces	662
653	consumes	1397
1301	produces	30
841	produces	53
1819	produces	184
102	consumes	1714
57	consumes	842
11	consumes	1185
44	consumes	1159
893	produces	137
1701	produces	14
3	consumes	1709
11	consumes	1035
947	produces	237
226	consumes	942
1614	produces	23
864	produces	94
113	consumes	1571
11	consumes	1602
36	consumes	1328
1748	produces	3
977	produces	30
1713	produces	34
3	consumes	1412
1848	produces	13
1056	produces	37
3	consumes	1549
1109	produces	2
1474	produces	698
620	consumes	1364
14	consumes	1811
351	consumes	1616
1066	produces	30
307	consumes	1001
1018	produces	9
38	consumes	1726
25	consumes	1830
3	consumes	880
4	consumes	1650
11	consumes	848
852	produces	2
1009	produces	2
1730	produces	9
898	produces	133
1489	produces	36
1712	produces	37
1206	produces	499
922	produces	195
203	consumes	1596
1732	produces	803
1050	produces	31
2	consumes	1525
1617	produces	578
3	consumes	856
954	produces	13
1753	produces	77
501	consumes	1181
3	consumes	829
1755	produces	14
930	produces	2
1600	produces	608
1305	produces	23
22	consumes	1642
958	produces	2
122	consumes	1243
427	consumes	1493
684	consumes	1459
449	consumes	1097
122	consumes	1220
1600	produces	195
3	consumes	1203
245	consumes	952
651	consumes	1630
506	consumes	1566
1267	produces	23
1695	produces	14
971	produces	23
403	consumes	1091
1710	produces	76
240	consumes	949
1593	produces	160
895	produces	23
922	produces	194
3	consumes	1189
387	consumes	1077
1011	produces	318
1739	produces	3
435	consumes	1314
327	consumes	1021
1261	produces	499
924	produces	23
2	consumes	1558
1167	produces	23
375	consumes	1064
988	produces	244
1132	produces	477
1309	produces	605
534	consumes	1342
1598	produces	2
1764	produces	14
11	consumes	1844
950	produces	3
1019	produces	37
949	produces	241
298	consumes	1032
44	consumes	841
83	consumes	1083
653	consumes	1801
1664	produces	14
39	consumes	1667
1723	produces	34
2	consumes	857
1749	produces	415
906	produces	36
38	consumes	984
624	consumes	1586
1727	produces	34
1051	produces	39
38	consumes	1738
729	consumes	1533
1579	produces	159
602	consumes	1306
1252	produces	290
150	consumes	899
4	consumes	908
3	consumes	1461
857	produces	84
232	consumes	1092
1321	produces	400
1101	produces	140
1624	produces	2
155	consumes	1272
815	consumes	1774
699	consumes	1481
1276	produces	584
1139	produces	23
809	consumes	1751
83	consumes	910
2	consumes	1809
809	consumes	1738
890	produces	137
1278	produces	585
1111	produces	462
636	consumes	1663
2	consumes	1038
2	consumes	1567
1284	produces	30
1570	produces	2
341	consumes	1542
79	consumes	853
331	consumes	1092
590	consumes	1356
83	consumes	1084
143	consumes	1437
3	consumes	1472
488	consumes	1146
38	consumes	1525
1846	produces	36
615	consumes	1589
1110	produces	2
39	consumes	1617
304	consumes	1485
406	consumes	1755
378	consumes	1067
1460	produces	2
533	consumes	1675
361	consumes	1188
963	produces	9
1453	produces	678
1754	produces	37
825	produces	8
37	consumes	1449
849	produces	75
58	consumes	1092
138	consumes	1030
1136	produces	1
238	consumes	1281
1327	produces	307
757	consumes	1607
566	consumes	1251
3	consumes	1269
14	consumes	1412
155	consumes	1256
633	consumes	1637
503	consumes	1262
1618	produces	37
11	consumes	1182
1457	produces	9
2	consumes	1024
112	consumes	1563
1078	produces	68
1740	produces	214
957	produces	252
614	consumes	1330
631	consumes	1625
948	produces	239
414	consumes	1092
1110	produces	336
76	consumes	932
11	consumes	946
109	consumes	1787
1655	produces	503
1507	produces	5
34	consumes	1054
2	consumes	1201
1199	produces	2
884	produces	9
1466	produces	688
2	consumes	1400
1280	produces	587
1525	produces	394
44	consumes	1478
11	consumes	1594
308	consumes	1092
3	consumes	1678
689	consumes	1759
248	consumes	953
1072	produces	23
2	consumes	1455
1643	produces	23
1734	produces	9
1177	produces	509
889	produces	134
3	consumes	1717
1577	produces	745
1390	produces	297
402	consumes	1254
32	consumes	1212
606	consumes	1682
951	produces	9
1763	produces	13
113	consumes	921
38	consumes	1728
754	consumes	1617
761	consumes	1620
500	consumes	1339
1627	produces	2
216	consumes	1737
389	consumes	1457
291	consumes	995
897	produces	2
1475	produces	690
76	consumes	851
601	consumes	1302
2	consumes	1757
1325	produces	2
1082	produces	393
939	produces	214
842	produces	56
437	consumes	1092
11	consumes	1849
172	consumes	909
348	consumes	1325
346	consumes	1479
415	consumes	1771
1700	produces	76
1514	produces	2
1834	produces	405
955	produces	23
610	consumes	1702
1816	produces	787
1128	produces	240
1845	produces	14
1653	produces	229
1561	produces	5
1028	produces	2
481	consumes	1138
11	consumes	1829
214	consumes	935
3	consumes	1406
341	consumes	1034
3	consumes	1039
419	consumes	1092
1747	produces	422
1111	produces	2
9	consumes	1671
1297	produces	37
1114	produces	340
167	consumes	1307
1036	produces	344
1840	produces	34
1126	produces	478
617	consumes	1361
1570	produces	249
39	consumes	1839
2	consumes	1311
257	consumes	1821
618	consumes	1555
517	consumes	1521
405	consumes	1131
1146	produces	23
1847	produces	23
774	consumes	1658
1418	produces	23
431	consumes	1092
1604	produces	412
1536	produces	23
1457	produces	36
47	consumes	1158
1692	produces	326
3	consumes	1847
1474	produces	159
812	consumes	1749
923	produces	2
1092	produces	2
668	consumes	1429
847	produces	71
7	consumes	826
1069	produces	374
1613	produces	761
927	produces	9
155	consumes	1204
502	consumes	1558
1738	produces	3
1205	produces	534
96	consumes	1561
1302	produces	600
1264	produces	499
1602	produces	384
2	consumes	1743
1687	produces	23
942	produces	227
1114	produces	30
1818	produces	4
1124	produces	36
293	consumes	1600
2	consumes	1449
1288	produces	232
1256	produces	326
22	consumes	1140
498	consumes	1167
1545	produces	2
1722	produces	36
990	produces	34
1188	produces	520
886	produces	2
1689	produces	78
1267	produces	290
1726	produces	3
22	consumes	987
39	consumes	1055
2	consumes	849
854	produces	14
1404	produces	297
230	consumes	1201
1823	produces	214
2	consumes	1702
82	consumes	856
1751	produces	813
152	consumes	900
3	consumes	1667
1826	produces	535
275	consumes	1063
828	produces	20
1170	produces	2
314	consumes	1674
1462	produces	2
1413	produces	23
2	consumes	1271
36	consumes	985
1718	produces	167
1258	produces	232
215	consumes	1744
1650	produces	365
1250	produces	326
29	consumes	1092
1415	produces	660
1033	produces	339
1578	produces	159
598	consumes	1298
768	consumes	1645
1008	produces	315
171	consumes	1660
1737	produces	3
3	consumes	1661
440	consumes	1092
455	consumes	1573
1263	produces	499
3	consumes	1256
573	consumes	1261
163	consumes	904
1767	produces	394
1218	produces	543
216	consumes	1724
11	consumes	1440
90	consumes	1272
66	consumes	851
1155	produces	3
955	produces	247
1499	produces	708
1467	produces	688
1434	produces	658
271	consumes	1848
983	produces	9
1736	produces	9
1726	produces	798
332	consumes	1029
110	consumes	1288
87	consumes	858
2	consumes	1052
214	consumes	1646
44	consumes	1160
216	consumes	1739
1717	produces	23
1716	produces	167
1517	produces	493
1681	produces	412
289	consumes	991
36	consumes	855
880	produces	119
14	consumes	1813
1572	produces	30
1094	produces	2
1094	produces	23
937	produces	36
1245	produces	2
1568	produces	17
1038	produces	206
103	consumes	866
1228	produces	251
11	consumes	1620
11	consumes	1493
11	consumes	1126
135	consumes	1300
289	consumes	1603
473	consumes	1393
1053	produces	23
973	produces	271
1023	produces	159
597	consumes	1295
1591	produces	23
135	consumes	1404
1166	produces	30
11	consumes	1389
993	produces	2
523	consumes	1391
11	consumes	1266
11	consumes	1711
1431	produces	5
39	consumes	856
215	consumes	936
1673	produces	2
2	consumes	1758
892	produces	3
106	consumes	870
1289	produces	592
1721	produces	3
459	consumes	1109
897	produces	30
14	consumes	1759
931	produces	2
2	consumes	1705
623	consumes	1367
1725	produces	3
38	consumes	1736
1382	produces	9
721	consumes	1520
1208	produces	90
111	consumes	876
1848	produces	14
1739	produces	9
1835	produces	821
1143	produces	3
738	consumes	1826
1317	produces	62
39	consumes	1191
1720	produces	794
1295	produces	322
34	consumes	1769
986	produces	280
1694	produces	14
3	consumes	1224
1432	produces	5
23	consumes	1679
1046	produces	355
615	consumes	1709
2	consumes	1424
428	consumes	1092
90	consumes	879
39	consumes	1598
1836	produces	2
1633	produces	29
394	consumes	1083
3	consumes	1591
902	produces	2
39	consumes	986
22	consumes	1184
1087	produces	401
1729	produces	9
932	produces	2
616	consumes	1711
1436	produces	30
1516	produces	573
908	produces	9
1606	produces	2
1765	produces	390
1223	produces	265
1685	produces	62
1567	produces	168
664	consumes	1802
1456	produces	9
11	consumes	1116
1054	produces	113
216	consumes	1720
1247	produces	23
1730	produces	801
37	consumes	1304
420	consumes	1092
3	consumes	1487
379	consumes	1068
1544	produces	9
39	consumes	1269
1174	produces	506
34	consumes	1835
1428	produces	669
3	consumes	1417
1559	produces	22
11	consumes	1808
300	consumes	1092
354	consumes	1594
443	consumes	1093
1770	produces	14
1569	produces	249
1508	produces	5
158	consumes	1577
75	consumes	1563
39	consumes	1755
1823	produces	333
2	consumes	1819
931	produces	23
11	consumes	1438
724	consumes	1525
1728	produces	800
348	consumes	1675
1752	produces	2
1738	produces	434
671	consumes	1447
984	produces	3
579	consumes	1384
1039	produces	2
1516	produces	9
1732	produces	36
1737	produces	9
1601	produces	2
22	consumes	1663
553	consumes	1235
1033	produces	297
1208	produces	9
155	consumes	1606
3	consumes	902
1741	produces	3
160	consumes	1822
965	produces	3
90	consumes	1825
1725	produces	36
122	consumes	1838
1744	produces	3
465	consumes	1113
1554	produces	142
3	consumes	1195
11	consumes	882
1731	produces	36
1445	produces	514
989	produces	287
463	consumes	1273
826	produces	3
894	produces	137
2	consumes	1729
52	consumes	1466
1408	produces	13
495	consumes	1162
1082	produces	3
20	consumes	830
20	consumes	1084
83	consumes	1559
90	consumes	1665
865	produces	2
1019	produces	9
63	consumes	1648
1242	produces	2
456	consumes	1105
38	consumes	1735
1407	produces	195
3	consumes	1458
39	consumes	1487
231	consumes	1671
1265	produces	37
2	consumes	927
1516	produces	2
69	consumes	1527
1184	produces	2
1615	produces	629
337	consumes	1129
442	consumes	1092
825	produces	9
1737	produces	36
686	consumes	1461
11	consumes	1101
2	consumes	1196
10	consumes	826
1530	produces	136
113	consumes	1044
928	produces	23
1739	produces	36
934	produces	29
1429	produces	671
1594	produces	350
1568	produces	2
1017	produces	322
1538	produces	731
240	consumes	1092
1598	produces	754
417	consumes	1092
2	consumes	1084
507	consumes	1567
2	consumes	937
459	consumes	1110
790	consumes	1706
39	consumes	1524
545	consumes	1219
11	consumes	1606
582	consumes	1271
2	consumes	1608
946	produces	234
1327	produces	123
1313	produces	123
287	consumes	1764
1605	produces	2
962	produces	2
3	consumes	1177
345	consumes	1036
3	consumes	1419
11	consumes	1282
365	consumes	1054
1024	produces	36
1249	produces	36
3	consumes	1529
1486	produces	2
315	consumes	1718
1844	produces	810
530	consumes	1211
1028	produces	23
22	consumes	1555
839	produces	3
1755	produces	2
101	consumes	867
1077	produces	9
1051	produces	3
1001	produces	308
3	consumes	1582
919	produces	189
216	consumes	1735
947	produces	2
3	consumes	996
1173	produces	4
192	consumes	1498
1251	produces	13
31	consumes	1293
1704	produces	13
353	consumes	1046
616	consumes	1360
3	consumes	1527
665	consumes	1425
878	produces	2
1684	produces	312
1	consumes	825
15	consumes	1092
66	consumes	961
1674	produces	23
836	produces	43
1447	produces	14
22	consumes	1632
38	consumes	1744
313	consumes	1312
1830	produces	516
3	consumes	1535
1836	produces	30
1765	produces	13
293	consumes	1604
1258	produces	2
1111	produces	30
397	consumes	1092
1686	produces	426
771	consumes	1651
298	consumes	994
976	produces	276
873	produces	29
1454	produces	38
543	consumes	1704
1189	produces	520
760	consumes	1609
1723	produces	797
1628	produces	5
1707	produces	9
22	consumes	1036
374	consumes	1070
1659	produces	730
102	consumes	1708
456	consumes	1107
215	consumes	1741
34	consumes	1764
1741	produces	34
683	consumes	1462
826	produces	9
95	consumes	861
1632	produces	414
860	produces	2
1059	produces	9
1739	produces	34
1766	produces	13
413	consumes	1092
1692	produces	2
294	consumes	997
1531	produces	726
1746	produces	270
1315	produces	2
1424	produces	3
1108	produces	30
1617	produces	2
2	consumes	1750
2	consumes	1565
998	produces	251
1017	produces	113
3	consumes	1418
712	consumes	1517
2	consumes	1649
310	consumes	1253
370	consumes	1601
1645	produces	148
377	consumes	1331
423	consumes	1553
1420	produces	662
914	produces	183
4	consumes	1018
929	produces	14
546	consumes	1225
1759	produces	214
1140	produces	2
1606	produces	29
38	consumes	1575
1411	produces	186
480	consumes	1136
158	consumes	1659
285	consumes	987
988	produces	29
1462	produces	34
515	consumes	1445
484	consumes	1196
270	consumes	1744
822	consumes	1846
386	consumes	1192
11	consumes	1817
3	consumes	1611
405	consumes	1092
39	consumes	868
38	consumes	1457
2	consumes	1290
1506	produces	712
1741	produces	36
410	consumes	1540
1726	produces	36
751	consumes	1587
205	consumes	1791
569	consumes	1317
2	consumes	1542
1264	produces	84
3	consumes	1633
34	consumes	850
1455	produces	679
802	consumes	1728
11	consumes	1755
1745	produces	36
23	consumes	1621
1096	produces	448
3	consumes	1146
1444	produces	668
1102	produces	9
34	consumes	1701
1506	produces	13
1423	produces	666
402	consumes	1315
2	consumes	843
979	produces	85
1626	produces	68
1564	produces	39
1488	produces	10
1407	produces	13
1412	produces	190
938	produces	214
78	consumes	1323
1175	produces	391
1306	produces	3
293	consumes	992
1146	produces	2
1203	produces	160
1216	produces	538
1639	produces	416
1031	produces	335
871	produces	4
404	consumes	1149
1729	produces	3
1551	produces	30
1385	produces	204
1398	produces	601
61	consumes	1232
1047	produces	30
23	consumes	918
83	consumes	1546
14	consumes	1810
1494	produces	111
1169	produces	2
634	consumes	1378
11	consumes	1766
32	consumes	1624
870	produces	4
664	consumes	1422
1625	produces	226
1076	produces	3
1384	produces	639
2	consumes	1622
603	consumes	1680
11	consumes	1109
83	consumes	1011
423	consumes	1092
184	consumes	915
122	consumes	1090
1664	produces	777
1103	produces	297
72	consumes	1297
38	consumes	1052
34	consumes	1822
1709	produces	23
923	produces	198
1135	produces	460
1661	produces	344
31	consumes	1288
168	consumes	906
113	consumes	1312
1678	produces	375
1546	produces	4
2	consumes	1620
71	consumes	1008
1063	produces	370
1744	produces	408
1039	produces	37
11	consumes	1548
288	consumes	990
270	consumes	1768
1107	produces	2
3	consumes	873
862	produces	66
1391	produces	511
93	consumes	1786
1046	produces	354
959	produces	253
1719	produces	55
216	consumes	1727
690	consumes	1468
1187	produces	38
1502	produces	39
2	consumes	1759
1696	produces	14
1326	produces	23
11	consumes	1569
1065	produces	376
3	consumes	1410
850	produces	23
1061	produces	370
1760	produces	214
2	consumes	1726
313	consumes	1006
1154	produces	490
547	consumes	1227
11	consumes	1769
1663	produces	2
1423	produces	665
1521	produces	3
265	consumes	970
699	consumes	1619
1768	produces	14
3	consumes	1002
1576	produces	2
1761	produces	214
1550	produces	2
1559	produces	504
514	consumes	1340
1025	produces	2
1221	produces	2
39	consumes	1117
1399	produces	3
11	consumes	1448
985	produces	2
1154	produces	2
1075	produces	195
1609	produces	2
635	consumes	1379
505	consumes	1559
216	consumes	1721
324	consumes	1017
1817	produces	23
11	consumes	1437
866	produces	100
662	consumes	1491
195	consumes	1415
122	consumes	1241
1456	produces	680
1086	produces	398
1277	produces	23
708	consumes	1500
1460	produces	14
1522	produces	3
955	produces	2
1515	produces	13
1044	produces	34
1242	produces	556
13	consumes	956
980	produces	36
436	consumes	1092
336	consumes	1031
695	consumes	1473
214	consumes	1843
1643	produces	30
2	consumes	1382
987	produces	278
204	consumes	1691
221	consumes	983
1706	produces	31
122	consumes	1010
849	produces	3
1592	produces	68
218	consumes	936
903	produces	162
302	consumes	1311
1406	produces	2
1447	produces	39
910	produces	84
39	consumes	1660
383	consumes	1074
1676	produces	490
1841	produces	648
396	consumes	1087
1243	produces	13
896	produces	2
1126	produces	2
709	consumes	1514
144	consumes	1434
3	consumes	1404
1071	produces	3
39	consumes	1618
210	consumes	945
1836	produces	215
1603	produces	195
883	produces	13
1514	produces	719
357	consumes	1065
1658	produces	5
1551	produces	733
11	consumes	1517
1610	produces	83
1063	produces	23
528	consumes	1199
1756	produces	14
243	consumes	950
1664	produces	13
467	consumes	1115
1594	produces	14
1648	produces	770
32	consumes	1394
2	consumes	1022
473	consumes	1121
416	consumes	1092
1770	produces	13
158	consumes	1471
958	produces	13
14	consumes	1758
1583	produces	2
580	consumes	1270
1023	produces	328
1193	produces	524
1476	produces	692
20	consumes	1092
1596	produces	23
1623	produces	225
185	consumes	1239
1757	produces	682
897	produces	132
216	consumes	1728
1563	produces	2
2	consumes	1741
934	produces	2
1120	produces	235
3	consumes	903
458	consumes	1109
1523	produces	30
1179	produces	2
611	consumes	1328
1010	produces	9
3	consumes	938
1515	produces	2
912	produces	5
1291	produces	312
132	consumes	889
38	consumes	1719
1674	produces	30
1130	produces	140
38	consumes	849
544	consumes	1218
1484	produces	2
1293	produces	594
1768	produces	13
1667	produces	4
23	consumes	1286
1702	produces	347
44	consumes	1158
1185	produces	2
1461	produces	9
642	consumes	1799
666	consumes	1804
1096	produces	13
1199	produces	439
196	consumes	922
1839	produces	2
1163	produces	2
158	consumes	1468
1744	produces	9
1675	produces	527
1668	produces	2
536	consumes	1209
1572	produces	23
122	consumes	1556
995	produces	23
1326	produces	347
1109	produces	295
2	consumes	1018
39	consumes	1078
334	consumes	1030
1701	produces	638
249	consumes	955
1151	produces	72
1606	produces	30
752	consumes	1710
1146	produces	44
1838	produces	786
39	consumes	1448
11	consumes	1753
242	consumes	1715
1642	produces	768
859	produces	91
3	consumes	1756
248	consumes	955
1447	produces	29
190	consumes	1695
1685	produces	784
1178	produces	160
683	consumes	1458
451	consumes	1100
490	consumes	1222
75	consumes	1234
1766	produces	769
1082	produces	34
1009	produces	37
39	consumes	1054
1421	produces	363
2	consumes	1429
1153	produces	27
1056	produces	9
1314	produces	123
34	consumes	1055
1738	produces	34
1100	produces	139
1029	produces	3
1404	produces	2
2	consumes	1488
11	consumes	1701
3	consumes	1416
1526	produces	3
215	consumes	1745
1182	produces	2
674	consumes	1433
1730	produces	3
1285	produces	30
1272	produces	36
1037	produces	206
524	consumes	1503
1290	produces	593
11	consumes	832
1709	produces	2
507	consumes	1174
2	consumes	1549
1673	produces	779
1684	produces	160
110	consumes	922
1614	produces	14
1743	produces	34
479	consumes	1135
939	produces	221
1727	produces	3
2	consumes	1559
258	consumes	1673
219	consumes	937
1745	produces	34
1455	produces	9
1105	produces	455
1517	produces	23
38	consumes	1456
1215	produces	38
27	consumes	1040
1082	produces	23
424	consumes	1092
158	consumes	980
2	consumes	904
113	consumes	1169
505	consumes	1425
1158	produces	3
1635	produces	38
38	consumes	1399
3	consumes	855
1122	produces	13
38	consumes	1290
1135	produces	2
846	produces	3
34	consumes	1763
2	consumes	1745
1713	produces	2
3	consumes	1323
1227	produces	438
1542	produces	197
1089	produces	402
11	consumes	1498
1666	produces	732
1523	produces	143
332	consumes	1726
1692	produces	756
153	consumes	900
1014	produces	321
109	consumes	874
856	produces	66
1296	produces	211
753	consumes	1844
226	consumes	1627
126	consumes	1692
633	consumes	1377
138	consumes	894
1392	produces	90
11	consumes	1242
415	consumes	1747
825	produces	2
1117	produces	2
269	consumes	1053
935	produces	34
1844	produces	13
1502	produces	3
1492	produces	451
647	consumes	1516
13	consumes	1385
39	consumes	1039
83	consumes	1762
1724	produces	3
3	consumes	1662
1752	produces	37
3	consumes	1284
1441	produces	122
512	consumes	1338
1182	produces	30
937	produces	9
1809	produces	9
2	consumes	1216
2	consumes	1526
130	consumes	886
39	consumes	1662
1256	produces	14
1427	produces	668
398	consumes	1318
656	consumes	1399
1579	produces	746
155	consumes	1092
83	consumes	1125
1180	produces	29
1243	produces	314
813	consumes	1750
1514	produces	544
19	consumes	827
1450	produces	39
592	consumes	1389
840	produces	50
1213	produces	30
326	consumes	1092
3	consumes	1169
1127	produces	2
1719	produces	34
1629	produces	30
826	produces	15
201	consumes	973
11	consumes	1591
854	produces	13
890	produces	3
1074	produces	223
1492	produces	30
158	consumes	1025
158	consumes	1023
890	produces	136
29	consumes	1276
963	produces	172
1597	produces	245
29	consumes	1392
22	consumes	1442
632	consumes	1632
270	consumes	1145
1001	produces	2
146	consumes	1789
941	produces	2
1159	produces	411
364	consumes	1092
22	consumes	1258
1030	produces	2
1321	produces	2
595	consumes	1294
1262	produces	502
1755	produces	77
1249	produces	561
303	consumes	1005
1606	produces	23
1428	produces	2
1020	produces	2
861	produces	66
136	consumes	1490
1650	produces	15
2	consumes	960
11	consumes	1768
1583	produces	23
451	consumes	1420
1307	produces	290
374	consumes	1072
272	consumes	1849
2	consumes	1540
522	consumes	1190
11	consumes	1447
724	consumes	1772
278	consumes	1092
226	consumes	1630
1314	produces	2
1027	produces	2
899	produces	151
415	consumes	1748
470	consumes	1119
1385	produces	640
113	consumes	1831
936	produces	36
1068	produces	137
1679	produces	781
1168	produces	252
1541	produces	13
1172	produces	502
1219	produces	171
735	consumes	1565
42	consumes	836
1657	produces	2
769	consumes	1646
692	consumes	1469
981	produces	159
1700	produces	66
1226	produces	23
1824	produces	151
1209	produces	532
576	consumes	1352
475	consumes	1121
158	consumes	1472
11	consumes	1095
717	consumes	1697
710	consumes	1504
23	consumes	921
69	consumes	1487
1327	produces	2
1847	produces	824
22	consumes	1138
1575	produces	36
1279	produces	23
1166	produces	497
1611	produces	30
746	consumes	1578
620	consumes	1572
11	consumes	898
1269	produces	37
1399	produces	655
836	produces	36
1462	produces	9
392	consumes	1083
1324	produces	30
236	consumes	1092
48	consumes	1092
655	consumes	1432
215	consumes	1750
1311	produces	13
3	consumes	1188
57	consumes	1746
406	consumes	1767
4	consumes	1488
11	consumes	826
1402	produces	250
943	produces	209
15	consumes	1665
226	consumes	1628
956	produces	250
346	consumes	1161
90	consumes	1200
1641	produces	767
2	consumes	906
621	consumes	1365
29	consumes	1278
1213	produces	24
38	consumes	1739
878	produces	15
3	consumes	1462
1595	produces	4
207	consumes	1039
1554	produces	30
11	consumes	1284
1600	produces	2
1770	produces	396
478	consumes	1127
38	consumes	1272
1042	produces	348
1098	produces	361
975	produces	274
1735	produces	3
1396	produces	652
1030	produces	18
2	consumes	1835
1169	produces	387
14	consumes	1757
1173	produces	505
1142	produces	486
1596	produces	120
565	consumes	1453
1838	produces	13
1268	produces	30
430	consumes	1092
36	consumes	1330
479	consumes	1133
3	consumes	1183
400	consumes	1092
1391	produces	9
936	produces	3
11	consumes	1550
37	consumes	1502
1222	produces	142
1539	produces	2
72	consumes	1488
1105	produces	9
286	consumes	1796
1652	produces	2
659	consumes	1530
3	consumes	1182
249	consumes	1222
425	consumes	1523
1001	produces	159
420	consumes	1260
1093	produces	3
1704	produces	712
632	consumes	1376
68	consumes	1571
936	produces	217
1550	produces	619
1383	produces	9
831	produces	23
1490	produces	2
1000	produces	305
848	produces	23
1272	produces	29
1402	produces	187
18	consumes	849
34	consumes	1752
916	produces	185
949	produces	235
3	consumes	1471
3	consumes	1500
467	consumes	1833
1259	produces	2
1097	produces	2
226	consumes	1633
1419	produces	180
53	consumes	1159
74	consumes	882
3	consumes	1551
11	consumes	1100
827	produces	18
840	produces	3
216	consumes	936
82	consumes	871
1683	produces	87
898	produces	30
1750	produces	34
232	consumes	1247
565	consumes	1249
1244	produces	13
1204	produces	531
2	consumes	1444
1751	produces	3
39	consumes	1009
568	consumes	1648
23	consumes	914
1185	produces	23
1811	produces	123
113	consumes	1188
22	consumes	1345
3	consumes	885
216	consumes	1733
1461	produces	52
245	consumes	951
34	consumes	1766
401	consumes	1092
1203	produces	354
416	consumes	1641
1624	produces	125
155	consumes	1652
3	consumes	1640
1576	produces	9
11	consumes	1133
50	consumes	1160
1275	produces	37
1200	produces	529
1287	produces	30
1282	produces	23
1433	produces	30
251	consumes	957
960	produces	3
1221	produces	265
968	produces	2
11	consumes	1435
3	consumes	1413
1722	produces	3
1036	produces	2
1740	produces	218
516	consumes	1186
1011	produces	84
669	consumes	1444
1095	produces	2
1166	produces	2
1710	produces	103
3	consumes	1752
1771	produces	13
276	consumes	977
1593	produces	68
11	consumes	929
1281	produces	588
1200	produces	29
30	consumes	1621
83	consumes	1525
1044	produces	351
1186	produces	36
1601	produces	195
1018	produces	324
1316	produces	2
2	consumes	1722
3	consumes	912
38	consumes	1731
1069	produces	31
1630	produces	716
3	consumes	884
11	consumes	902
290	consumes	991
1572	produces	739
1241	produces	326
23	consumes	958
1721	produces	34
395	consumes	1092
2	consumes	1541
38	consumes	980
3	consumes	939
2	consumes	1090
1585	produces	34
1157	produces	441
19	consumes	1568
190	consumes	919
3	consumes	1411
261	consumes	966
643	consumes	1388
1181	produces	4
1082	produces	2
1815	produces	817
1673	produces	30
1267	produces	30
1755	produces	13
97	consumes	928
1188	produces	2
1458	produces	2
1280	produces	30
118	consumes	880
1479	produces	380
1620	produces	13
258	consumes	962
1828	produces	519
1057	produces	368
1303	produces	2
1669	produces	732
386	consumes	1502
873	produces	66
22	consumes	1179
825	produces	6
1507	produces	714
158	consumes	1656
1150	produces	138
188	consumes	918
128	consumes	1327
1496	produces	36
683	consumes	1460
1712	produces	9
1192	produces	3
1748	produces	36
168	consumes	1451
624	consumes	1368
1139	produces	19
158	consumes	1475
1456	produces	214
894	produces	3
685	consumes	1460
402	consumes	1255
1595	produces	753
1745	produces	9
1635	produces	2
3	consumes	1061
1752	produces	14
1697	produces	718
1181	produces	37
1749	produces	9
1462	produces	45
510	consumes	1337
1504	produces	23
1112	produces	23
3	consumes	1072
436	consumes	1313
43	consumes	887
1661	produces	37
158	consumes	1579
970	produces	266
333	consumes	1614
923	produces	195
1104	produces	9
920	produces	192
3	consumes	1226
973	produces	2
1394	produces	648
11	consumes	1326
2	consumes	1830
46	consumes	1092
1439	produces	249
1460	produces	46
48	consumes	839
215	consumes	1081
833	produces	35
867	produces	2
249	consumes	1073
902	produces	29
32	consumes	1057
204	consumes	1623
1010	produces	123
538	consumes	1212
1683	produces	452
1073	produces	382
252	consumes	1092
248	consumes	954
11	consumes	1139
3	consumes	1197
1752	produces	113
3	consumes	1499
1720	produces	9
846	produces	68
3	consumes	1252
1116	produces	30
38	consumes	1722
1833	produces	297
1454	produces	2
1278	produces	30
1773	produces	57
1504	produces	711
878	produces	116
1112	produces	30
2	consumes	1731
1552	produces	734
627	consumes	1371
1458	produces	34
986	produces	2
11	consumes	1845
39	consumes	1292
249	consumes	1540
770	consumes	1686
1519	produces	721
1617	produces	37
2	consumes	1723
11	consumes	1754
1255	produces	123
2	consumes	1383
1812	produces	30
11	consumes	850
957	produces	23
228	consumes	942
1227	produces	37
1230	produces	2
2	consumes	1145
875	produces	4
263	consumes	969
37	consumes	1452
1525	produces	36
3	consumes	1274
1421	produces	34
407	consumes	1092
1453	produces	561
656	consumes	1401
38	consumes	1526
2	consumes	1735
11	consumes	1611
1134	produces	23
1589	produces	421
1025	produces	159
1088	produces	71
135	consumes	1131
1660	produces	2
3	consumes	1267
23	consumes	1491
1478	produces	497
2	consumes	1733
504	consumes	1263
907	produces	2
3	consumes	971
38	consumes	936
872	produces	37
944	produces	230
3	consumes	1536
829	produces	23
1083	produces	23
299	consumes	1092
1464	produces	688
1388	produces	602
1646	produces	34
2	consumes	1676
631	consumes	1375
878	produces	115
67	consumes	1784
1425	produces	22
1093	produces	444
1228	produces	2
1238	produces	13
2	consumes	842
1765	produces	14
215	consumes	1749
297	consumes	1101
227	consumes	1688
3	consumes	1814
2	consumes	1450
158	consumes	903
3	consumes	1241
278	consumes	978
44	consumes	843
471	consumes	1302
398	consumes	1092
760	consumes	1611
2	consumes	1762
886	produces	128
158	consumes	1576
2	consumes	864
1116	produces	23
1038	produces	36
3	consumes	1244
122	consumes	882
826	produces	8
212	consumes	935
60	consumes	1685
1102	produces	5
1591	produces	2
1306	produces	2
156	consumes	1583
827	produces	17
1638	produces	766
3	consumes	1275
851	produces	78
34	consumes	1770
1631	produces	9
807	consumes	1736
195	consumes	1092
1657	produces	159
270	consumes	1029
1808	produces	13
1655	produces	159
207	consumes	1038
3	consumes	1459
1729	produces	332
1002	produces	310
1131	produces	13
1054	produces	37
1522	produces	361
861	produces	5
1405	produces	13
1253	produces	9
1304	produces	602
1730	produces	36
216	consumes	1722
1041	produces	347
39	consumes	1480
1282	produces	155
279	consumes	979
11	consumes	1622
481	consumes	1778
917	produces	178
548	consumes	1344
952	produces	9
3	consumes	1460
1230	produces	159
1055	produces	2
283	consumes	1014
38	consumes	1024
852	produces	66
59	consumes	1092
162	consumes	1024
1031	produces	297
919	produces	178
949	produces	2
348	consumes	1706
1754	produces	13
392	consumes	1082
952	produces	37
133	consumes	929
155	consumes	1569
23	consumes	1162
1013	produces	320
473	consumes	1503
14	consumes	1092
236	consumes	947
1066	produces	23
1620	produces	764
1772	produces	270
1293	produces	346
1656	produces	159
1117	produces	469
905	produces	23
870	produces	79
997	produces	301
1679	produces	2
1736	produces	34
1568	produces	18
810	consumes	1740
1054	produces	9
1665	produces	4
11	consumes	863
2	consumes	1727
1814	produces	816
15	consumes	1651
1459	produces	51
535	consumes	1206
1532	produces	13
845	produces	64
496	consumes	1334
905	produces	3
1813	produces	30
4	consumes	1828
1266	produces	2
3	consumes	1819
1512	produces	640
355	consumes	1820
964	produces	191
628	consumes	1372
1735	produces	9
11	consumes	1821
1019	produces	113
377	consumes	1066
92	consumes	859
1746	produces	34
1008	produces	2
21	consumes	1782
36	consumes	1253
1690	produces	334
722	consumes	1524
1743	produces	3
994	produces	296
1459	produces	2
1825	produces	29
3	consumes	1583
38	consumes	1750
1290	produces	36
915	produces	181
1383	produces	638
215	consumes	1746
11	consumes	1813
849	produces	36
1657	produces	718
1752	produces	77
1300	produces	472
3	consumes	1325
1626	produces	29
1454	produces	678
882	produces	123
1774	produces	34
1253	produces	38
504	consumes	1512
1695	produces	2
122	consumes	1402
856	produces	37
1288	produces	3
715	consumes	1512
1621	produces	2
3	consumes	1167
2	consumes	1037
969	produces	264
200	consumes	925
485	consumes	1144
101	consumes	865
882	produces	23
187	consumes	1250
11	consumes	901
1281	produces	2
2	consumes	1725
879	produces	35
1437	produces	657
896	produces	30
1571	produces	738
1817	produces	2
90	consumes	1098
992	produces	2
51	consumes	1092
38	consumes	1124
2	consumes	1734
422	consumes	1769
665	consumes	1424
1560	produces	3
833	produces	34
1298	produces	437
194	consumes	926
27	consumes	831
1083	produces	34
22	consumes	1545
800	consumes	1725
11	consumes	1283
3	consumes	1402
1220	produces	123
1726	produces	9
541	consumes	1506
3	consumes	1754
1430	produces	669
994	produces	297
1742	produces	3
3	consumes	1139
158	consumes	1476
1662	produces	2
1192	produces	473
11	consumes	1570
2	consumes	841
1194	produces	30
1267	produces	2
1649	produces	267
1232	produces	62
680	consumes	1472
34	consumes	1007
83	consumes	950
1616	produces	2
858	produces	86
113	consumes	1840
503	consumes	1172
199	consumes	924
1565	produces	737
3	consumes	1546
226	consumes	1631
50	consumes	1157
1042	produces	2
1140	produces	431
57	consumes	1843
473	consumes	1251
119	consumes	1543
1517	produces	2
1432	produces	3
249	consumes	1407
1490	produces	13
1529	produces	5
1727	produces	36
504	consumes	1450
559	consumes	1499
795	consumes	1720
1287	produces	123
1068	produces	3
425	consumes	1411
1084	produces	23
1687	produces	2
1292	produces	595
1688	produces	78
1045	produces	2
3	consumes	1414
11	consumes	1693
1045	produces	351
1634	produces	5
1299	produces	13
926	produces	201
34	consumes	1768
106	consumes	871
606	consumes	1309
877	produces	112
1651	produces	9
1156	produces	3
171	consumes	1839
1699	produces	503
1300	produces	13
641	consumes	1390
232	consumes	946
11	consumes	1551
37	consumes	1451
396	consumes	1085
467	consumes	1132
863	produces	30
270	consumes	1848
1221	produces	140
670	consumes	1428
1582	produces	705
1420	produces	23
300	consumes	1590
11	consumes	1439
1304	produces	23
985	produces	280
1125	produces	3
158	consumes	1107
1187	produces	519
1747	produces	36
1279	produces	30
391	consumes	1092
667	consumes	1803
1440	produces	135
2	consumes	1294
242	consumes	1047
1245	produces	314
1082	produces	30
1182	produces	23
1147	produces	2
1525	produces	3
599	consumes	1300
38	consumes	906
442	consumes	1835
3	consumes	910
155	consumes	1274
1812	produces	13
11	consumes	1816
826	produces	12
39	consumes	1197
1487	produces	37
1565	produces	250
1445	produces	677
1276	produces	9
882	produces	124
1047	produces	23
423	consumes	1416
1468	produces	159
604	consumes	1680
11	consumes	1028
1029	produces	331
1598	produces	37
108	consumes	873
11	consumes	1247
155	consumes	1447
11	consumes	1301
589	consumes	1285
1222	produces	2
953	produces	14
449	consumes	1776
268	consumes	1089
1527	produces	23
571	consumes	1354
1401	produces	3
120	consumes	1597
1622	produces	22
260	consumes	965
84	consumes	1071
3	consumes	1509
2	consumes	1186
1229	produces	57
996	produces	300
1515	produces	720
827	produces	2
585	consumes	1304
1280	produces	2
36	consumes	1187
709	consumes	1513
1535	produces	23
38	consumes	1649
2	consumes	839
1172	produces	4
1741	produces	9
1836	produces	23
1674	produces	527
542	consumes	1217
1832	produces	781
314	consumes	1707
3	consumes	1176
855	produces	2
60	consumes	1232
1829	produces	30
1571	produces	2
825	produces	4
11	consumes	1668
1121	produces	235
787	consumes	1838
3	consumes	1658
661	consumes	1528
3	consumes	1617
1741	produces	809
891	produces	3
2	consumes	951
1030	produces	137
235	consumes	1123
29	consumes	1275
11	consumes	1281
1185	produces	515
1757	produces	214
1844	produces	14
165	consumes	905
1061	produces	23
1427	produces	13
1547	produces	30
3	consumes	1117
1573	produces	243
4	consumes	958
3	consumes	1824
38	consumes	1740
1450	produces	505
856	produces	2
38	consumes	1038
1470	produces	159
662	consumes	1492
272	consumes	1177
38	consumes	1730
1225	produces	2
1275	produces	5
473	consumes	1534
1648	produces	3
167	consumes	905
1152	produces	13
1715	produces	791
1698	produces	66
1080	produces	34
120	consumes	1815
2	consumes	1192
1265	produces	9
884	produces	92
1816	produces	30
1458	produces	9
11	consumes	1638
341	consumes	1092
1663	produces	15
1268	produces	23
1425	produces	656
1403	produces	250
954	produces	195
1606	produces	651
314	consumes	1701
295	consumes	994
1640	produces	5
159	consumes	1678
503	consumes	1510
255	consumes	960
3	consumes	1231
1004	produces	71
2	consumes	982
34	consumes	1670
675	consumes	1810
895	produces	145
410	consumes	1092
748	consumes	1580
788	consumes	1703
1654	produces	232
1314	produces	436
392	consumes	1084
1443	produces	666
135	consumes	890
698	consumes	1758
1839	produces	37
610	consumes	1326
1237	produces	555
431	consumes	1141
558	consumes	1508
52	consumes	841
122	consumes	1099
424	consumes	1548
1134	produces	466
407	consumes	1126
1034	produces	274
351	consumes	1453
942	produces	23
1540	produces	13
1026	produces	159
762	consumes	1612
11	consumes	1547
1823	produces	2
1759	produces	685
3	consumes	973
11	consumes	1194
1110	produces	30
1201	produces	485
43	consumes	886
77	consumes	1710
1149	produces	23
11	consumes	934
2	consumes	1631
1459	produces	34
498	consumes	1333
1077	produces	4
2	consumes	1739
1520	produces	33
1132	produces	23
993	produces	195
1240	produces	13
348	consumes	1296
925	produces	90
258	consumes	1028
1147	produces	58
1242	produces	14
37	consumes	1564
274	consumes	1547
110	consumes	875
247	consumes	964
1583	produces	736
1662	produces	314
214	consumes	990
1148	produces	2
755	consumes	1598
1566	produces	507
1729	produces	34
2	consumes	1283
495	consumes	1163
83	consumes	1745
1534	produces	474
172	consumes	1527
1325	produces	314
1519	produces	2
591	consumes	1286
1607	produces	756
1161	produces	493
2	consumes	1124
1676	produces	719
1212	produces	34
22	consumes	1136
1183	produces	437
798	consumes	1723
683	consumes	1459
982	produces	281
138	consumes	893
216	consumes	1725
120	consumes	881
831	produces	2
443	consumes	1103
1547	produces	2
480	consumes	1777
1424	produces	22
54	consumes	843
548	consumes	1229
189	consumes	1691
1195	produces	145
1727	produces	799
418	consumes	1098
1400	produces	3
969	produces	9
1444	produces	13
893	produces	143
1114	produces	23
49	consumes	1159
1728	produces	3
11	consumes	977
78	consumes	1627
1294	produces	9
2	consumes	1272
38	consumes	1741
1026	produces	330
1491	produces	183
1204	produces	29
21	consumes	828
1400	produces	655
1325	produces	31
1679	produces	38
927	produces	202
1202	produces	3
1724	produces	36
1190	produces	3
673	consumes	1805
39	consumes	1446
1500	produces	709
1667	produces	37
1821	produces	256
182	consumes	914
1673	produces	23
3	consumes	1034
1262	produces	499
479	consumes	1134
5	consumes	1570
1547	produces	341
11	consumes	1127
1210	produces	13
891	produces	137
468	consumes	1544
214	consumes	1080
38	consumes	1150
233	consumes	946
1285	produces	591
1750	produces	3
1219	produces	4
426	consumes	1092
1622	produces	23
1256	produces	29
1323	produces	387
117	consumes	878
258	consumes	1606
251	consumes	1303
3	consumes	1166
1286	produces	302
1811	produces	30
1131	produces	467
1644	produces	23
1720	produces	34
884	produces	5
1079	produces	2
1436	produces	136
11	consumes	1003
1094	produces	30
290	consumes	993
540	consumes	1519
432	consumes	1317
2	consumes	1104
11	consumes	1135
907	produces	4
1521	produces	529
421	consumes	1092
61	consumes	844
22	consumes	930
22	consumes	1170
22	consumes	1298
1569	produces	23
1556	produces	195
11	consumes	1113
906	produces	169
1493	produces	129
1324	produces	348
68	consumes	963
1271	produces	583
862	produces	2
525	consumes	1197
1214	produces	539
408	consumes	1766
1005	produces	2
22	consumes	1270
1474	produces	2
9	consumes	1231
1012	produces	84
281	consumes	980
38	consumes	981
226	consumes	1638
78	consumes	1700
816	consumes	1817
1658	produces	160
1542	produces	13
23	consumes	915
1556	produces	2
831	produces	26
1135	produces	23
1581	produces	614
1112	produces	2
1675	produces	31
1319	produces	398
2	consumes	1451
879	produces	29
3	consumes	1047
1315	produces	123
1158	produces	413
1266	produces	30
1634	produces	226
1232	produces	549
1191	produces	37
1067	produces	374
1809	produces	88
1603	produces	410
23	consumes	917
375	consumes	1230
952	produces	246
1531	produces	13
1590	produces	420
277	consumes	1011
1655	produces	2
1144	produces	72
1446	produces	37
1319	produces	2
318	consumes	1661
1160	produces	3
1831	produces	2
1735	produces	805
1181	produces	2
284	consumes	984
104	consumes	866
1587	produces	2
1164	produces	71
90	consumes	859
911	produces	173
1012	produces	176
968	produces	30
62	consumes	1531
961	produces	257
838	produces	47
901	produces	2
1384	produces	14
1194	produces	525
37	consumes	1479
1123	produces	298
1538	produces	30
11	consumes	1565
1729	produces	36
891	produces	139
338	consumes	1032
1746	produces	36
2	consumes	1518
967	produces	23
34	consumes	1019
1647	produces	149
656	consumes	1443
1160	produces	409
493	consumes	1518
44	consumes	1147
391	consumes	1083
1021	produces	14
1083	produces	3
1632	produces	2
909	produces	11
11	consumes	1756
65	consumes	1783
637	consumes	1545
1120	produces	13
825	produces	3
1728	produces	9
1324	produces	23
1245	produces	559
1711	produces	23
1142	produces	72
1769	produces	14
962	produces	216
2	consumes	1014
83	consumes	912
950	produces	242
428	consumes	1731
474	consumes	1537
1709	produces	30
1694	produces	143
1330	produces	613
1621	produces	3
1455	produces	3
422	consumes	1754
215	consumes	1738
370	consumes	1600
2	consumes	1747
275	consumes	1209
1473	produces	697
1581	produces	2
11	consumes	1436
468	consumes	1116
902	produces	30
1588	produces	393
1167	produces	30
1825	produces	782
72	consumes	847
1251	produces	476
2	consumes	1131
67	consumes	852
1301	produces	599
809	consumes	1765
947	produces	235
202	consumes	974
1016	produces	323
197	consumes	923
1486	produces	705
3	consumes	1403
37	consumes	1400
30	consumes	909
1628	produces	68
11	consumes	1146
867	produces	100
216	consumes	1726
1007	produces	314
1254	produces	2
83	consumes	979
1129	produces	140
1005	produces	200
1204	produces	533
1668	produces	23
953	produces	13
1408	produces	2
3	consumes	957
1833	produces	654
1607	produces	250
1030	produces	333
34	consumes	1839
855	produces	38
11	consumes	1572
1288	produces	346
1302	produces	2
1754	produces	2
1492	produces	2
110	consumes	1560
3	consumes	1713
223	consumes	940
1425	produces	3
110	consumes	1143
703	consumes	1484
704	consumes	1582
39	consumes	1005
1439	produces	30
1573	produces	3
1261	produces	574
1819	produces	5
803	consumes	1729
122	consumes	1240
1133	produces	23
363	consumes	1516
1398	produces	2
11	consumes	1538
16	consumes	827
2	consumes	1641
1434	produces	30
34	consumes	1384
11	consumes	1705
1273	produces	29
390	consumes	1082
1723	produces	36
57	consumes	1092
1156	produces	492
1119	produces	472
1511	produces	717
1053	produces	364
38	consumes	1720
921	produces	34
1699	produces	66
83	consumes	1178
1774	produces	415
11	consumes	1324
414	consumes	1634
951	produces	3
1762	produces	3
1837	produces	683
2	consumes	1737
581	consumes	1310
158	consumes	1001
1254	produces	568
160	consumes	1829
256	consumes	962
266	consumes	1152
938	produces	2
62	consumes	1532
1176	produces	509
1035	produces	2
3	consumes	1053
187	consumes	917
887	produces	130
11	consumes	1553
1108	produces	140
36	consumes	1208
1671	produces	228
13	consumes	967
885	produces	23
1067	produces	137
646	consumes	1847
1112	produces	464
1816	produces	2
49	consumes	1155
237	consumes	1092
1002	produces	2
654	consumes	1398
2	consumes	1051
1719	produces	9
78	consumes	1699
1489	produces	381
3	consumes	1407
1536	produces	729
3	consumes	1389
3	consumes	975
857	produces	83
1396	produces	23
1275	produces	2
1667	produces	2
268	consumes	972
1849	produces	202
1274	produces	233
2	consumes	1105
1773	produces	34
172	consumes	928
39	consumes	1756
11	consumes	1554
850	produces	30
2	consumes	1059
105	consumes	869
932	produces	207
1035	produces	262
940	produces	222
681	consumes	1477
84	consumes	1070
1736	produces	806
1703	produces	493
651	consumes	1396
1546	produces	5
1295	produces	346
1182	produces	513
763	consumes	1616
1109	produces	30
1320	produces	123
3	consumes	977
1133	produces	2
155	consumes	1814
185	consumes	1238
363	consumes	1052
1233	produces	551
1321	produces	123
450	consumes	1099
396	consumes	1773
1821	produces	13
575	consumes	1266
1223	produces	2
1146	produces	30
190	consumes	1819
1605	produces	341
402	consumes	1313
34	consumes	1765
1457	produces	214
563	consumes	1247
872	produces	2
726	consumes	1535
1426	produces	665
1599	produces	23
844	produces	63
1461	produces	34
1216	produces	39
786	consumes	1692
39	consumes	1712
1080	produces	389
45	consumes	840
1602	produces	2
1422	produces	663
41	consumes	837
2	consumes	1740
118	consumes	879
3	consumes	1243
1509	produces	2
1259	produces	290
625	consumes	1552
402	consumes	1320
155	consumes	1633
485	consumes	1142
922	produces	2
958	produces	14
317	consumes	1392
978	produces	277
869	produces	2
3	consumes	1508
44	consumes	1157
1125	produces	461
1670	produces	322
1772	produces	34
808	consumes	1737
2	consumes	1456
229	consumes	944
1572	produces	2
215	consumes	1742
1735	produces	36
1137	produces	246
1580	produces	623
207	consumes	1037
361	consumes	1050
392	consumes	1618
1430	produces	5
501	consumes	1170
1399	produces	36
57	consumes	1849
1411	produces	23
1304	produces	39
214	consumes	1844
3	consumes	1237
177	consumes	912
1252	produces	2
1475	produces	2
36	consumes	1082
1644	produces	61
626	consumes	1370
1386	produces	643
1196	produces	526
1484	produces	14
1724	produces	54
3	consumes	1154
1551	produces	23
83	consumes	1082
3	consumes	1063
11	consumes	1836
911	produces	84
1771	produces	14
501	consumes	1174
673	consumes	1431
1318	produces	62
1743	produces	811
53	consumes	1158
107	consumes	870
1318	produces	2
1085	produces	397
1224	produces	5
1732	produces	34
486	consumes	1143
1024	produces	329
1756	produces	37
744	consumes	1577
57	consumes	1770
445	consumes	1094
1060	produces	23
3	consumes	1571
56	consumes	1092
239	consumes	1092
3	consumes	1420
1470	produces	2
11	consumes	1267
334	consumes	1147
500	consumes	1171
55	consumes	1762
876	produces	4
1827	produces	643
1835	produces	3
285	consumes	1795
1611	produces	23
1015	produces	323
83	consumes	1526
1513	produces	542
158	consumes	1578
61	consumes	1648
216	consumes	1723
1604	produces	2
90	consumes	1842
1828	produces	9
145	consumes	898
225	consumes	941
1744	produces	34
921	produces	193
367	consumes	1056
1720	produces	3
759	consumes	1608
11	consumes	1843
197	consumes	1601
1217	produces	2
215	consumes	1743
1763	produces	14
429	consumes	1092
647	consumes	1515
1541	produces	293
1153	produces	30
2	consumes	1502
509	consumes	1252
1502	produces	524
1442	produces	676
1818	produces	713
122	consumes	1409
363	consumes	1051
490	consumes	1220
2	consumes	1076
38	consumes	1518
86	consumes	1043
1619	produces	343
863	produces	2
11	consumes	1250
1079	produces	352
1721	produces	9
1	consumes	826
977	produces	2
51	consumes	840
470	consumes	1148
166	consumes	1427
305	consumes	1263
2	consumes	1239
895	produces	2
1056	produces	256
231	consumes	1676
142	consumes	892
402	consumes	1321
3	consumes	1198
216	consumes	1738
3	consumes	1684
1559	produces	3
61	consumes	1647
11	consumes	1690
36	consumes	1215
1207	produces	106
887	produces	129
1127	produces	479
758	consumes	1693
727	consumes	1531
146	consumes	895
1091	produces	2
1393	produces	647
11	consumes	1213
1643	produces	768
473	consumes	1193
371	consumes	1061
1557	produces	5
462	consumes	1112
216	consumes	1719
1651	produces	772
3	consumes	1683
7	consumes	825
408	consumes	1092
984	produces	36
32	consumes	833
928	produces	203
339	consumes	1130
806	consumes	1733
1751	produces	36
11	consumes	1523
961	produces	32
828	produces	2
842	produces	3
1758	produces	214
676	consumes	1806
90	consumes	1388
1588	produces	752
1201	produces	3
1752	produces	13
39	consumes	1056
1134	produces	30
1178	produces	9
2	consumes	1299
513	consumes	1183
1750	produces	9
1226	produces	547
985	produces	38
30	consumes	894
649	consumes	1394
249	consumes	954
820	consumes	1823
999	produces	303
1722	produces	9
78	consumes	1697
319	consumes	1012
1618	produces	2
1317	produces	433
90	consumes	1626
1427	produces	9
1440	produces	30
829	produces	20
1389	produces	23
634	consumes	1642
854	produces	81
1767	produces	14
0	consumes	825
442	consumes	1456
2	consumes	1427
2	consumes	1707
155	consumes	1815
1733	produces	36
11	consumes	931
155	consumes	1291
1165	produces	70
1553	produces	30
88	consumes	858
1537	produces	62
773	consumes	1653
427	consumes	1414
1297	produces	2
57	consumes	843
1257	produces	570
11	consumes	1674
9	consumes	1837
36	consumes	1635
569	consumes	1318
381	consumes	1073
2	consumes	840
1498	produces	2
1603	produces	2
38	consumes	1727
133	consumes	1093
179	consumes	1096
1003	produces	30
40	consumes	835
346	consumes	1050
259	consumes	1224
135	consumes	1299
1758	produces	684
1320	produces	430
1072	produces	13
1512	produces	505
37	consumes	1216
1406	produces	13
298	consumes	1031
240	consumes	1279
1305	produces	36
1305	produces	602
3	consumes	1050
62	consumes	1255
1127	produces	30
1164	produces	72
1248	produces	561
3	consumes	1507
1161	produces	427
1442	produces	2
350	consumes	1044
351	consumes	1454
3	consumes	974
1045	produces	314
11	consumes	1134
619	consumes	1551
1157	produces	3
636	consumes	1380
11	consumes	968
1710	produces	2
1750	produces	36
1283	produces	589
1238	produces	326
1166	produces	23
45	consumes	839
618	consumes	1362
1016	produces	37
1230	produces	374
625	consumes	1369
532	consumes	1203
11	consumes	1763
843	produces	3
253	consumes	1792
1099	produces	123
1240	produces	325
2	consumes	1732
7	consumes	954
1218	produces	2
3	consumes	1677
843	produces	59
714	consumes	1649
861	produces	25
158	consumes	1470
22	consumes	907
1567	produces	506
1753	produces	2
90	consumes	1382
1292	produces	2
39	consumes	869
164	consumes	1026
1452	produces	39
1241	produces	2
66	consumes	850
180	consumes	913
1073	produces	13
39	consumes	1297
373	consumes	1064
1297	produces	311
3	consumes	943
920	produces	13
1830	produces	9
113	consumes	877
656	consumes	1400
71	consumes	1291
2	consumes	1544
38	consumes	834
1028	produces	30
206	consumes	932
1582	produces	2
2	consumes	1073
7	consumes	1277
929	produces	204
1322	produces	2
948	produces	2
501	consumes	1173
38	consumes	1724
1227	produces	2
254	consumes	960
269	consumes	1088
2	consumes	1520
965	produces	259
1211	produces	537
598	consumes	1357
1401	produces	5
314	consumes	1712
1389	produces	29
872	produces	108
1510	produces	640
1403	produces	186
855	produces	66
1145	produces	3
1176	produces	270
408	consumes	1734
461	consumes	1111
1653	produces	13
738	consumes	1592
1387	produces	643
158	consumes	1473
737	consumes	1814
2	consumes	1575
804	consumes	1730
238	consumes	948
1612	produces	761
892	produces	137
1849	produces	14
305	consumes	1261
216	consumes	1730
11	consumes	1429
138	consumes	891
1725	produces	254
1627	produces	66
1109	produces	23
47	consumes	1155
496	consumes	1166
305	consumes	1264
1480	produces	37
1503	produces	13
1610	produces	3
933	produces	208
490	consumes	1223
2	consumes	1573
4	consumes	1019
1646	produces	219
1026	produces	2
11	consumes	1287
215	consumes	1080
309	consumes	1002
871	produces	79
549	consumes	1254
876	produces	5
211	consumes	934
965	produces	2
1165	produces	72
1281	produces	23
1204	produces	2
1563	produces	7
38	consumes	836
22	consumes	1625
1821	produces	14
1599	produces	2
134	consumes	1165
1562	produces	25
2	consumes	978
990	produces	218
1696	produces	30
1196	produces	9
1528	produces	5
22	consumes	1621
420	consumes	1259
645	consumes	1387
1740	produces	36
932	produces	77
991	produces	291
850	produces	32
1256	produces	13
1564	produces	735
23	consumes	919
1829	produces	193
14	consumes	1761
892	produces	141
574	consumes	1698
57	consumes	1739
1246	produces	560
1469	produces	691
391	consumes	1082
1845	produces	13
818	consumes	1816
1623	produces	13
5	consumes	1280
826	produces	14
1277	produces	563
1562	produces	5
1260	produces	572
1224	produces	457
1518	produces	36
1746	produces	3
776	consumes	1664
1529	produces	135
900	produces	23
1605	produces	195
38	consumes	1271
924	produces	110
1400	produces	39
1462	produces	14
3	consumes	861
1676	produces	23
733	consumes	1550
1810	produces	30
882	produces	13
503	consumes	1452
216	consumes	1729
560	consumes	1654
1180	produces	511
946	produces	30
39	consumes	1752
242	consumes	1714
407	consumes	1125
635	consumes	1644
198	consumes	927
39	consumes	872
1843	produces	606
1642	produces	2
11	consumes	1259
445	consumes	1775
29	consumes	1387
1387	produces	644
580	consumes	1355
1546	produces	84
991	produces	195
1459	produces	14
482	consumes	1139
1526	produces	36
105	consumes	1025
359	consumes	1048
1329	produces	613
214	consumes	1845
561	consumes	1246
286	consumes	989
858	produces	89
412	consumes	1541
1389	produces	2
934	produces	30
158	consumes	1230
416	consumes	1624
875	produces	5
29	consumes	1211
1265	produces	346
1750	produces	812
1049	produces	360
399	consumes	1315
925	produces	199
11	consumes	1083
459	consumes	1113
1472	produces	159
514	consumes	1185
1250	produces	30
605	consumes	1681
1136	produces	2
980	produces	159
39	consumes	1265
941	produces	224
1289	produces	15
1319	produces	123
1254	produces	123
231	consumes	1673
110	consumes	877
903	produces	159
1551	produces	2
1678	produces	190
1824	produces	23
38	consumes	1520
11	consumes	1709
1471	produces	2
1449	produces	39
1253	produces	132
83	consumes	1558
1631	produces	343
1745	produces	3
1621	produces	11
415	consumes	1092
267	consumes	971
1738	produces	9
572	consumes	1351
1282	produces	2
2	consumes	1479
997	produces	23
1433	produces	675
1456	produces	3
1023	produces	2
1192	produces	39
715	consumes	1509
268	consumes	1090
5	consumes	1281
799	consumes	1724
140	consumes	891
5	consumes	910
184	consumes	1195
3	consumes	1622
215	consumes	1747
321	consumes	1092
11	consumes	970
23	consumes	976
5	consumes	1282
1147	produces	333
1656	produces	502
1839	produces	113
940	produces	3
154	consumes	1705
43	consumes	1398
1455	produces	214
1163	produces	30
335	consumes	1128
1078	produces	2
1139	produces	2
33	consumes	833
848	produces	30
730	consumes	1538
1293	produces	5
3	consumes	895
785	consumes	1689
971	produces	152
110	consumes	923
1574	produces	741
1814	produces	29
83	consumes	1566
415	consumes	1756
848	produces	74
98	consumes	864
2	consumes	920
1014	produces	3
727	consumes	1636
3	consumes	1603
76	consumes	1752
1106	produces	3
1477	produces	693
702	consumes	1484
38	consumes	1721
1089	produces	23
1483	produces	567
858	produces	2
1011	produces	5
1469	produces	159
1201	produces	9
434	consumes	1845
1126	produces	23
1066	produces	2
297	consumes	1417
38	consumes	1446
2	consumes	1102
134	consumes	1164
1055	produces	256
204	consumes	1103
2	consumes	1508
2	consumes	1738
1307	produces	39
158	consumes	1657
1210	produces	525
1048	produces	358
1548	produces	30
1414	produces	495
400	consumes	1316
613	consumes	1581
1083	produces	30
1756	produces	13
1066	produces	374
39	consumes	1329
31	consumes	1324
105	consumes	868
713	consumes	1704
460	consumes	1110
767	consumes	1683
4	consumes	1830
885	produces	126
1763	produces	212
893	produces	3
772	consumes	1659
1330	produces	38
290	consumes	1309
1271	produces	36
1660	produces	160
1766	produces	14
138	consumes	890
23	consumes	916
1213	produces	2
190	consumes	1694
1135	produces	30
982	produces	9
1670	produces	32
931	produces	206
343	consumes	1650
421	consumes	1588
540	consumes	1216
1316	produces	123
896	produces	147
1549	produces	182
1034	produces	23
1068	produces	374
38	consumes	1489
954	produces	2
1285	produces	2
1753	produces	113
1530	produces	5
270	consumes	1752
1732	produces	9
401	consumes	1319
3	consumes	1049
11	consumes	1218
145	consumes	1092
1	consumes	1137
905	produces	166
1197	produces	2
39	consumes	952
1652	produces	29
470	consumes	1117
1179	produces	440
546	consumes	1343
1733	produces	804
22	consumes	1229
3	consumes	1060
1225	produces	438
1130	produces	238
1814	produces	30
11	consumes	854
993	produces	294
794	consumes	1719
522	consumes	1191
1027	produces	161
76	consumes	1753
870	produces	27
1485	produces	172
77	consumes	1700
44	consumes	838
10	consumes	1489
249	consumes	1542
1505	produces	3
1747	produces	3
1070	produces	378
1416	produces	23
11	consumes	1633
1643	produces	2
1	consumes	1092
172	consumes	1132
3	consumes	1604
226	consumes	1626
3	consumes	1634
732	consumes	1546
2	consumes	1089
1843	produces	13
533	consumes	1674
103	consumes	867
1277	produces	2
2	consumes	1651
1733	produces	3
1558	produces	22
1561	produces	4
121	consumes	1084
1644	produces	30
2	consumes	1401
915	produces	178
139	consumes	1436
573	consumes	1656
226	consumes	1629
2	consumes	1607
1764	produces	13
1629	produces	765
329	consumes	1023
464	consumes	1116
11	consumes	1501
1654	produces	7
1107	produces	159
1582	produces	9
3	consumes	1092
2	consumes	1656
1452	produces	502
1533	produces	60
1429	produces	13
865	produces	99
902	produces	156
2	consumes	984
918	produces	183
38	consumes	1762
1762	produces	814
3	consumes	1773
1395	produces	2
29	consumes	925
459	consumes	1669
123	consumes	1441
11	consumes	1166
819	consumes	1817
1744	produces	36
663	consumes	1426
1070	produces	3
731	consumes	1613
728	consumes	1536
1178	produces	3
596	consumes	1293
396	consumes	1526
1468	produces	2
1613	produces	15
476	consumes	1497
1425	produces	504
221	consumes	1763
1184	produces	514
44	consumes	1145
945	produces	30
2	consumes	1728
411	consumes	1092
11	consumes	895
645	consumes	1825
206	consumes	1092
357	consumes	1047
939	produces	2
31	consumes	1265
1587	produces	750
39	consumes	1079
1705	produces	76
55	consumes	843
1540	produces	289
1723	produces	3
1538	produces	23
3	consumes	941
1408	produces	423
47	consumes	1156
34	consumes	1771
649	consumes	1841
216	consumes	1732
706	consumes	1788
1721	produces	796
1726	produces	34
1604	produces	195
1137	produces	29
1817	produces	30
1235	produces	3
1405	produces	427
55	consumes	842
435	consumes	1092
1633	produces	13
3	consumes	1168
442	consumes	1457
1084	produces	34
83	consumes	1747
22	consumes	1322
1246	produces	562
4	consumes	1519
2	consumes	964
1099	produces	2
1461	produces	14
683	consumes	1461
975	produces	275
3	consumes	1569
1601	produces	273
1625	produces	2
1106	produces	456
1734	produces	3
11	consumes	1814
763	consumes	1615
1083	produces	9
1532	produces	728
966	produces	257
473	consumes	1120
521	consumes	1189
2	consumes	1529
66	consumes	845
175	consumes	911
1138	produces	415
1032	produces	297
1241	produces	23
983	produces	282
992	produces	195
1118	produces	471
960	produces	131
743	consumes	1576
95	consumes	862
1711	produces	2
204	consumes	1427
3	consumes	1043
114	consumes	878
650	consumes	1395
31	consumes	832
974	produces	2
1510	produces	502
3	consumes	1239
619	consumes	1363
433	consumes	1092
226	consumes	1092
1630	produces	2
1711	produces	30
84	consumes	1610
217	consumes	938
1144	produces	431
1247	produces	561
1003	produces	311
963	produces	30
2	consumes	1391
1652	produces	773
1283	produces	13
2	consumes	883
1611	produces	628
384	consumes	1075
881	produces	121
399	consumes	1086
1697	produces	66
402	consumes	1314
68	consumes	1010
216	consumes	1059
1404	produces	13
554	consumes	1236
1039	produces	29
290	consumes	1308
525	consumes	1198
1416	produces	661
11	consumes	1094
1696	produces	2
15	consumes	1126
1496	produces	342
11	consumes	1047
375	consumes	1560
1728	produces	34
1183	produces	252
853	produces	80
216	consumes	937
1394	produces	66
554	consumes	1348
1007	produces	113
1753	produces	13
298	consumes	1833
37	consumes	1307
1268	produces	578
504	consumes	1173
1575	produces	743
525	consumes	1418
1407	produces	2
1107	produces	105
782	consumes	1679
694	consumes	1761
525	consumes	1687
14	consumes	1760
645	consumes	1827
305	consumes	1262
1488	produces	9
3	consumes	1660
2	consumes	1746
844	produces	62
1753	produces	14
3	consumes	872
1497	produces	475
1441	produces	30
1848	produces	201
1477	produces	159
1111	produces	23
634	consumes	1643
1769	produces	13
1270	produces	2
1619	produces	2
1274	produces	13
792	consumes	1716
1041	produces	38
1446	produces	36
38	consumes	1249
90	consumes	1141
3	consumes	1245
1303	produces	38
1708	produces	99
46	consumes	1465
1731	produces	34
1435	produces	659
1693	produces	30
1170	produces	500
393	consumes	1589
914	produces	181
1312	produces	2
83	consumes	904
564	consumes	1248
1831	produces	644
190	consumes	1696
158	consumes	1655
1465	produces	688
1691	produces	13
1284	produces	252
1401	produces	39
1515	produces	9
1511	produces	640
1810	produces	674
11	consumes	1110
783	consumes	1834
1292	produces	37
1722	produces	795
1406	produces	424
1616	produces	353
1069	produces	2
3	consumes	1628
155	consumes	934
1698	produces	573
170	consumes	907
69	consumes	1164
1618	produces	649
1217	produces	541
2	consumes	1838
1281	produces	30
1458	produces	14
23	consumes	913
748	consumes	1581
1090	produces	13
930	produces	206
888	produces	132
1308	produces	603
1668	produces	30
287	consumes	1092
7	consumes	862
1244	produces	314
1499	produces	2
1509	produces	716
122	consumes	1242
1220	produces	265
713	consumes	1506
1587	produces	9
1218	produces	14
1748	produces	34
1460	produces	34
127	consumes	885
1555	produces	660
3	consumes	1094
909	produces	4
23	consumes	1297
2	consumes	1399
11	consumes	1111
1313	produces	429
90	consumes	1180
1562	produces	7
1317	produces	2
1718	produces	72
874	produces	2
254	consumes	1014
918	produces	189
1212	produces	95
984	produces	280
121	consumes	1083
1047	produces	2
937	produces	213
1206	produces	66
224	consumes	943
37	consumes	1051
1308	produces	214
1742	produces	36
1756	produces	113
900	produces	150
37	consumes	1037
387	consumes	1078
389	consumes	1456
2	consumes	1425
1567	produces	22
1651	produces	34
70	consumes	847
83	consumes	1264
859	produces	29
149	consumes	897
968	produces	248
1592	produces	160
1247	produces	30
886	produces	129
121	consumes	1082
1047	produces	356
1409	produces	2
441	consumes	1092
748	consumes	1582
2	consumes	1452
1548	produces	144
467	consumes	1128
38	consumes	1749
34	consumes	854
1599	produces	30
1126	produces	30
125	consumes	884
22	consumes	1199
3	consumes	1557
3	consumes	1490
1472	produces	2
186	consumes	916
652	consumes	1638
44	consumes	840
2	consumes	1307
389	consumes	1740
784	consumes	1686
2	consumes	1040
418	consumes	1092
1748	produces	9
1702	produces	3
490	consumes	1221
11	consumes	1664
297	consumes	1108
1731	produces	3
1016	produces	2
131	consumes	959
1447	produces	13
978	produces	9
1731	produces	9
216	consumes	1734
1010	produces	172
1590	produces	419
1062	produces	275
1075	produces	385
1077	produces	37
1097	produces	418
11	consumes	1163
2	consumes	936
132	consumes	1539
1125	produces	36
1129	produces	236
302	consumes	1283
1495	produces	72
3	consumes	1605
1284	produces	2
251	consumes	1148
38	consumes	1186
76	consumes	1755
7	consumes	1092
279	consumes	985
271	consumes	1176
738	consumes	1593
1064	produces	374
37	consumes	1192
1123	produces	23
429	consumes	1320
898	produces	2
3	consumes	1408
913	produces	179
1239	produces	179
862	produces	96
403	consumes	1335
4	consumes	1028
1686	produces	3
1579	produces	2
38	consumes	1743
1662	produces	37
1243	produces	557
11	consumes	1822
1312	produces	34
1100	produces	30
2	consumes	1457
3	consumes	1042
2	consumes	1751
1228	produces	30
570	consumes	1290
1413	produces	188
11	consumes	1433
3	consumes	1268
1737	produces	34
1220	produces	2
916	produces	183
1535	produces	60
439	consumes	1200
1328	produces	38
29	consumes	832
1064	produces	372
44	consumes	839
11	consumes	1167
11	consumes	1441
577	consumes	1268
45	consumes	1092
1513	produces	719
1167	produces	359
1840	produces	648
1711	produces	103
1754	produces	77
161	consumes	903
26	consumes	1154
1638	produces	2
39	consumes	1275
1279	produces	2
679	consumes	1471
34	consumes	1753
209	consumes	933
1537	produces	2
1480	produces	347
39	consumes	1181
3	consumes	1000
1499	produces	13
1690	produces	30
1384	produces	13
1636	produces	204
1095	produces	134
1476	produces	159
391	consumes	1134
38	consumes	864
1719	produces	36
1139	produces	30
1279	produces	586
1167	produces	2
11	consumes	883
314	consumes	1324
11	consumes	1629
11	consumes	1583
1159	produces	3
396	consumes	1086
1302	produces	140
1849	produces	13
1409	produces	326
816	consumes	1816
1754	produces	113
1519	produces	3
1740	produces	9
1774	produces	2
630	consumes	1374
438	consumes	1092
1428	produces	127
342	consumes	1035
863	produces	97
2	consumes	1528
1723	produces	9
16	consumes	1568
236	consumes	1280
11	consumes	1084
424	consumes	1413
1398	produces	129
1090	produces	402
416	consumes	1640
38	consumes	1455
138	consumes	892
1760	produces	686
1527	produces	710
1633	produces	2
1037	produces	39
1284	produces	23
622	consumes	1366
23	consumes	1635
958	produces	172
1745	produces	406
65	consumes	845
1550	produces	23
382	consumes	1602
1714	produces	2
1127	produces	23
11	consumes	1696
1162	produces	494
1749	produces	34
1438	produces	30
1294	produces	596
11	consumes	1279
540	consumes	1635
1671	produces	2
39	consumes	1227
706	consumes	1494
1072	produces	158
2	consumes	1083
14	consumes	1812
851	produces	77
131	consumes	887
2	consumes	1761
499	consumes	1269
962	produces	30
1103	produces	13
38	consumes	1737
1130	produces	2
45	consumes	841
1628	produces	84
22	consumes	828
1591	produces	30
38	consumes	1745
991	produces	2
11	consumes	1228
747	consumes	1579
39	consumes	1753
9	consumes	1237
2	consumes	838
1842	produces	82
1714	produces	791
1458	produces	48
1316	produces	399
141	consumes	1435
1732	produces	3
29	consumes	1277
1393	produces	13
1269	produces	2
135	consumes	1221
550	consumes	1486
1123	produces	2
1709	produces	752
1771	produces	815
39	consumes	1661
1581	produces	9
609	consumes	1358
594	consumes	1292
573	consumes	1449
170	consumes	1790
44	consumes	1029
1672	produces	779
1451	produces	169
1769	produces	725
826	produces	2
2	consumes	1721
64	consumes	846
1689	produces	14
1706	produces	2
942	produces	2
1543	produces	468
626	consumes	1591
90	consumes	988
629	consumes	1373
3	consumes	1227
3	consumes	1020
1191	produces	2
1613	produces	2
204	consumes	1238
76	consumes	1754
38	consumes	1846
1544	produces	391
85	consumes	857
1682	produces	214
51	consumes	1464
1389	produces	30
4	consumes	1007
44	consumes	1092
270	consumes	1735
1494	produces	2
934	produces	23
1076	produces	386
1764	produces	288
22	consumes	1395
7	consumes	1594
11	consumes	945
3	consumes	1537
860	produces	94
1713	produces	314
1229	produces	2
1055	produces	37
1050	produces	362
987	produces	2
362	consumes	1496
11	consumes	1082
1571	produces	34
11	consumes	1848
1250	produces	2
1085	produces	34
1113	produces	23
296	consumes	1115
1703	produces	36
1843	produces	14
1410	produces	187
122	consumes	1695
279	consumes	986
2	consumes	1489
57	consumes	1753
1622	produces	30
515	consumes	1184
316	consumes	1009
238	consumes	1092
1417	produces	450
953	produces	2
1122	produces	235
679	consumes	1475
1808	produces	327
394	consumes	1084
1693	produces	787
1751	produces	34
1563	produces	160
80	consumes	854
315	consumes	1717
1116	produces	458
39	consumes	834
38	consumes	937
472	consumes	1118
1191	produces	523
682	consumes	1458
22	consumes	1171
422	consumes	1092
1177	produces	57
1138	produces	2
11	consumes	920
488	consumes	1781
432	consumes	1092
2	consumes	1081
468	consumes	1135
1695	produces	123
1295	produces	5
2	consumes	884
1148	produces	140
605	consumes	1682
821	consumes	1837
931	produces	30
11	consumes	1280
1640	produces	652
1113	produces	30
687	consumes	1462
1747	produces	9
48	consumes	1463
502	consumes	1424
839	produces	49
304	consumes	999
154	consumes	1824
1566	produces	3
1082	produces	38
639	consumes	1383
903	produces	2
1247	produces	2
1754	produces	14
868	produces	2
1681	produces	214
1382	produces	82
838	produces	3
3	consumes	1572
15	consumes	1666
501	consumes	1172
967	produces	2
1052	produces	284
1390	produces	9
477	consumes	1124
912	produces	176
1761	produces	687
638	consumes	1713
1298	produces	2
158	consumes	981
3	consumes	1669
1491	produces	443
1742	produces	442
39	consumes	1019
73	consumes	848
113	consumes	1214
251	consumes	1062
157	consumes	902
1719	produces	3
720	consumes	1657
1155	produces	491
54	consumes	842
869	produces	37
740	consumes	1574
877	produces	34
2	consumes	1828
374	consumes	1092
1734	produces	34
2	consumes	1249
1094	produces	446
1025	produces	163
974	produces	57
158	consumes	1474
1539	produces	153
508	consumes	1336
3	consumes	1772
282	consumes	981
657	consumes	1694
38	consumes	1496
1733	produces	9
188	consumes	1549
992	produces	292
1320	produces	2
148	consumes	896
2	consumes	1125
11	consumes	962
38	consumes	1305
57	consumes	1745
881	produces	4
332	consumes	1145
90	consumes	1137
352	consumes	1045
463	consumes	1112
169	consumes	1567
1837	produces	3
941	produces	13
3	consumes	1581
11	consumes	1072
2	consumes	983
1660	produces	37
980	produces	255
830	produces	5
1731	produces	802
15	consumes	1667
1328	produces	612
1749	produces	3
1299	produces	470
3	consumes	1405
11	consumes	1644
1129	produces	2
937	produces	3
11	consumes	1092
1231	produces	258
3	consumes	1045
133	consumes	888
473	consumes	1497
402	consumes	1316
53	consumes	1160
120	consumes	1207
11	consumes	958
1748	produces	57
204	consumes	1444
1560	produces	96
1457	produces	3
1701	produces	13
1735	produces	34
1239	produces	5
3	consumes	1447
797	consumes	1722
1583	produces	30
1468	produces	689
391	consumes	1133
1661	produces	2
34	consumes	1821
1728	produces	36
667	consumes	1423
173	consumes	910
512	consumes	1182
1415	produces	23
262	consumes	968
131	consumes	1092
604	consumes	1681
1534	produces	13
1817	produces	758
1762	produces	36
1079	produces	37
1736	produces	3
995	produces	299
135	consumes	1569
1694	produces	2
2	consumes	1744
427	consumes	1092
1081	produces	113
1214	produces	34
1716	produces	793
1665	produces	29
917	produces	185
1006	produces	312
158	consumes	1809
1291	produces	29
3	consumes	1614
1388	produces	29
22	consumes	1619
1767	produces	13
38	consumes	1729
731	consumes	1612
3	consumes	1711
1524	produces	2
11	consumes	897
256	consumes	961
11	consumes	1153
3	consumes	1409
1677	produces	780
1392	produces	646
1190	produces	521
298	consumes	1033
49	consumes	1157
609	consumes	1322
1117	produces	37
1569	produces	2
826	produces	13
1187	produces	2
158	consumes	1027
38	consumes	1748
1296	produces	31
328	consumes	1022
73	consumes	1785
1624	produces	34
103	consumes	1715
11	consumes	1217
1163	produces	427
3	consumes	848
1463	produces	688
1234	produces	552
1051	produces	284
903	produces	160
110	consumes	1092
34	consumes	1755
1503	produces	566
39	consumes	1016
861	produces	2
326	consumes	1410
2	consumes	969
202	consumes	1092
1556	produces	123
1746	produces	9
1473	produces	159
1141	produces	29
904	produces	164
1197	produces	37
680	consumes	1476
1459	produces	9
912	produces	84
526	consumes	1205
22	consumes	860
1448	produces	36
1315	produces	435
1322	produces	78
11	consumes	896
1410	produces	23
322	consumes	1016
835	produces	41
1846	produces	823
1092	produces	30
1742	produces	34
1755	produces	113
946	produces	2
321	consumes	1013
981	produces	36
34	consumes	1756
2	consumes	1300
3	consumes	1046
74	consumes	883
660	consumes	1557
1470	produces	694
1485	produces	3
1553	produces	141
323	consumes	1018
1471	produces	695
954	produces	247
437	consumes	1301
1814	produces	2
380	consumes	1069
538	consumes	1215
91	consumes	872
110	consumes	1144
1652	produces	4
1149	produces	44
715	consumes	1510
1115	produces	417
783	consumes	1684
22	consumes	874
742	consumes	1575
1211	produces	90
29	consumes	1282
1027	produces	159
11	consumes	953
2	consumes	1152
1820	produces	700
22	consumes	1091
1573	produces	9
1738	produces	36
1724	produces	9
1842	produces	29
497	consumes	1168
222	consumes	1662
1608	produces	250
1035	produces	13
44	consumes	1155
825	produces	5
832	produces	30
39	consumes	1077
11	consumes	1673
11	consumes	1608
1418	produces	184
817	consumes	1818
346	consumes	1480
1677	produces	189
1602	produces	30
216	consumes	1731
1059	produces	256
1301	produces	2
1722	produces	34
1263	produces	505
197	consumes	993
11	consumes	1771
38	consumes	1747
659	consumes	1408
1693	produces	2
2	consumes	1507
137	consumes	1150
970	produces	30
1040	produces	9
1115	produces	140
1162	produces	183
1067	produces	3
38	consumes	1725
34	consumes	1056
1635	produces	765
1084	produces	395
945	produces	2
399	consumes	1092
325	consumes	1020
249	consumes	1541
1303	produces	309
489	consumes	1153
3	consumes	1774
159	consumes	1677
864	produces	36
1477	produces	2
1424	produces	503
38	consumes	1751
181	consumes	1210
1060	produces	370
841	produces	3
1727	produces	9
1505	produces	98
691	consumes	1760
2	consumes	1724
15	consumes	1246
138	consumes	1067
974	produces	272
1091	produces	387
389	consumes	1455
538	consumes	1213
2	consumes	1846
1644	produces	2
3	consumes	1827
120	consumes	1595
1223	produces	30
1202	produces	530
11	consumes	1643
622	consumes	1585
749	consumes	1584
1682	produces	341
38	consumes	1732
1174	produces	4
934	produces	210
12	consumes	1152
1282	produces	30
226	consumes	1687
38	consumes	1733
234	consumes	1296
571	consumes	1258
476	consumes	1534
1313	produces	2
3	consumes	1530
660	consumes	1556
551	consumes	1349
1058	produces	216
3	consumes	1102
1577	produces	2
476	consumes	1393
913	produces	178
358	consumes	1049
1633	produces	14
883	produces	124
627	consumes	1599
3	consumes	1599
1822	produces	14
981	produces	283
404	consumes	1092
15	consumes	1664
518	consumes	1522
1637	produces	416
1021	produces	2
956	produces	30
1412	produces	23
45	consumes	838
94	consumes	863
874	produces	110
1270	produces	29
50	consumes	1156
1095	produces	30
1570	produces	23
120	consumes	1652
1753	produces	37
151	consumes	901
3	consumes	1606
2	consumes	1720
1141	produces	484
778	consumes	1670
1023	produces	9
945	produces	231
320	consumes	1797
1435	produces	30
1721	produces	36
1517	produces	30
508	consumes	1175
3	consumes	997
406	consumes	1092
11	consumes	1268
3	consumes	1561
2	consumes	1719
167	consumes	1151
1707	produces	550
1275	produces	90
290	consumes	992
1144	produces	3
643	consumes	1396
707	consumes	1495
834	produces	37
3	consumes	1430
442	consumes	1455
39	consumes	1015
1814	produces	23
44	consumes	1156
650	consumes	1800
85	consumes	1426
1231	produces	2
448	consumes	1419
736	consumes	1564
38	consumes	1746
232	consumes	1265
459	consumes	1114
133	consumes	1165
83	consumes	984
1638	produces	13
11	consumes	1607
848	produces	2
1537	produces	23
1687	produces	123
1772	produces	2
54	consumes	1721
962	produces	23
29	consumes	1831
326	consumes	1287
11	consumes	1770
409	consumes	1092
1715	produces	2
3	consumes	934
837	produces	42
553	consumes	1347
1756	produces	77
1490	produces	451
880	produces	66
400	consumes	1087
1612	produces	75
123	consumes	1089
1845	produces	604
3	consumes	1755
1236	produces	555
1328	produces	2
123	consumes	893
1043	produces	189
1409	produces	13
1008	produces	30
1751	produces	9
301	consumes	1092
375	consumes	1069
204	consumes	1210
1280	produces	23
1818	produces	2
1311	produces	40
3	consumes	967
1743	produces	9
1312	produces	405
929	produces	2
11	consumes	1767
1706	produces	789
440	consumes	1180
510	consumes	1179
31	consumes	1295
869	produces	101
1198	produces	527
585	consumes	1305
946	produces	23
1177	produces	2
205	consumes	930
1194	produces	2
1734	produces	428
3	consumes	1562
2	consumes	908
110	consumes	1083
894	produces	144
261	consumes	1793
3	consumes	831
140	consumes	1440
1269	produces	579
1649	produces	36
1584	produces	621
228	consumes	1672
501	consumes	1178
1143	produces	431
1397	produces	83
82	consumes	855
1736	produces	36
1084	produces	30
900	produces	3
11	consumes	1108
1217	produces	14
1244	produces	2
584	consumes	1842
11	consumes	1434
832	produces	2
1524	produces	37
3	consumes	1415
895	produces	30
36	consumes	1303
38	consumes	1723
749	consumes	1583
1424	produces	656
834	produces	36
607	consumes	1405
3	consumes	1550
1318	produces	432
1561	produces	375
942	produces	30
11	consumes	1223
700	consumes	1482
1832	produces	30
1309	produces	214
1092	produces	23
11	consumes	1008
801	consumes	1727
2	consumes	1760
38	consumes	1703
926	produces	9
979	produces	280
677	consumes	1442
910	produces	174
1133	produces	465
39	consumes	1754
1576	produces	159
832	produces	23
11	consumes	1623
718	consumes	1511
1473	produces	2
1680	produces	410
604	consumes	1308
935	produces	213
986	produces	37
138	consumes	1068
1154	produces	6
2	consumes	1557
1475	produces	159
3	consumes	882
302	consumes	998
1043	produces	349
204	consumes	1532
1015	produces	37
3	consumes	1149
476	consumes	1122
340	consumes	1033
1082	produces	9
3	consumes	1654
672	consumes	1430
36	consumes	1454
1274	produces	29
24	consumes	829
1737	produces	807
1020	produces	326
251	consumes	1004
656	consumes	1423
901	produces	30
550	consumes	1233
1152	produces	489
3	consumes	1644
34	consumes	1017
2	consumes	1530
1296	produces	2
83	consumes	1628
1437	produces	30
22	consumes	852
1577	produces	159
641	consumes	1385
204	consumes	1096
374	consumes	1071
215	consumes	1748
1460	produces	9
1329	produces	37
1455	produces	36
1594	produces	13
1243	produces	2
122	consumes	1811
1822	produces	113
853	produces	3
1268	produces	2
576	consumes	1267
1720	produces	36
1115	produces	2
204	consumes	1653
22	consumes	1609
11	consumes	963
499	consumes	1169
412	consumes	1092
38	consumes	1742
1558	produces	503
34	consumes	1754
1591	produces	738
37	consumes	1450
205	consumes	931
977	produces	23
1208	produces	38
215	consumes	1751
537	consumes	1226
158	consumes	1469
1549	produces	5
1627	produces	165
