40	consumes	150
56	consumes	107
162	produces	25
61	consumes	152
123	produces	42
124	produces	53
151	produces	58
8	consumes	73
149	produces	42
41	consumes	129
50	consumes	138
55	consumes	87
119	produces	52
154	produces	16
89	produces	40
140	produces	53
29	consumes	116
43	consumes	158
35	consumes	84
153	produces	11
28	consumes	113
127	produces	37
90	produces	23
126	produces	37
77	produces	5
122	produces	59
12	consumes	83
165	produces	32
143	produces	12
59	consumes	120
119	produces	4
71	consumes	165
37	consumes	122
43	consumes	80
64	consumes	115
83	produces	16
34	consumes	99
6	consumes	91
54	consumes	106
16	consumes	123
166	produces	32
44	consumes	131
65	consumes	164
51	consumes	119
22	consumes	84
139	produces	51
85	produces	18
63	consumes	160
61	consumes	84
1	consumes	89
136	produces	50
49	consumes	79
121	produces	61
84	produces	13
159	produces	42
72	produces	42
122	produces	42
151	produces	12
4	consumes	147
58	consumes	84
47	consumes	136
84	produces	50
128	produces	66
13	consumes	79
30	consumes	115
57	consumes	151
43	consumes	77
9	consumes	133
142	produces	50
72	produces	9
152	produces	58
38	consumes	127
134	produces	47
40	consumes	86
141	produces	55
45	consumes	132
51	consumes	124
129	produces	40
63	consumes	138
146	produces	0
158	produces	68
40	consumes	124
133	produces	42
124	produces	52
52	consumes	84
43	consumes	159
145	produces	25
60	consumes	149
12	consumes	154
43	consumes	90
113	produces	27
50	consumes	163
1	consumes	148
43	consumes	83
33	consumes	84
75	produces	40
150	produces	59
32	consumes	84
136	produces	61
26	consumes	111
7	consumes	72
2	consumes	146
82	produces	59
68	consumes	161
43	consumes	118
134	produces	42
20	consumes	161
125	produces	37
116	produces	25
83	produces	42
49	consumes	132
81	produces	7
65	consumes	157
40	consumes	84
43	consumes	88
20	consumes	142
132	produces	42
123	produces	35
120	produces	50
56	consumes	141
164	produces	67
25	consumes	84
35	consumes	125
111	produces	21
43	consumes	134
5	consumes	74
33	consumes	145
47	consumes	137
120	produces	42
20	consumes	72
40	consumes	133
8	consumes	92
30	consumes	117
155	produces	61
112	produces	59
147	produces	42
49	consumes	81
79	produces	18
84	produces	51
81	produces	42
160	produces	64
49	consumes	72
72	produces	50
51	consumes	128
157	produces	66
165	produces	25
40	consumes	76
130	produces	18
32	consumes	162
123	produces	59
150	produces	57
51	consumes	130
58	consumes	154
89	produces	58
16	consumes	84
77	produces	42
116	produces	61
115	produces	63
156	produces	71
61	consumes	142
41	consumes	103
76	produces	44
161	produces	59
42	consumes	138
28	consumes	114
6	consumes	77
138	produces	49
80	produces	13
113	produces	42
117	produces	47
16	consumes	143
24	consumes	95
139	produces	50
81	produces	50
75	produces	10
120	produces	0
46	consumes	88
36	consumes	100
52	consumes	139
84	produces	59
131	produces	68
17	consumes	75
132	produces	61
37	consumes	84
87	produces	63
80	produces	42
58	consumes	150
144	produces	27
150	produces	42
86	produces	42
127	produces	42
68	consumes	159
88	produces	42
154	produces	61
20	consumes	79
69	consumes	158
59	consumes	83
47	consumes	135
148	produces	2
16	consumes	122
142	produces	18
121	produces	33
162	produces	22
163	produces	42
57	consumes	86
69	consumes	110
137	produces	52
86	produces	20
149	produces	59
71	consumes	164
16	consumes	146
34	consumes	121
44	consumes	130
61	consumes	144
51	consumes	163
62	consumes	109
133	produces	47
163	produces	52
123	produces	12
43	consumes	149
115	produces	68
43	consumes	163
60	consumes	108
54	consumes	140
25	consumes	143
119	produces	42
84	produces	42
40	consumes	123
13	consumes	126
159	produces	69
37	consumes	124
23	consumes	81
40	consumes	117
49	consumes	139
42	consumes	87
138	produces	43
146	produces	12
49	consumes	136
21	consumes	166
31	consumes	118
152	produces	59
49	consumes	84
29	consumes	97
87	produces	43
118	produces	30
67	consumes	162
48	consumes	105
124	produces	13
84	produces	12
16	consumes	78
10	consumes	76
163	produces	49
28	consumes	96
43	consumes	127
42	consumes	126
137	produces	18
86	produces	17
40	consumes	152
33	consumes	119
111	produces	32
122	produces	12
14	consumes	80
36	consumes	123
51	consumes	137
58	consumes	121
138	produces	64
2	consumes	84
16	consumes	161
40	consumes	125
158	produces	42
122	produces	35
49	consumes	142
78	produces	12
82	produces	42
135	produces	50
118	produces	42
128	produces	52
62	consumes	155
79	produces	50
74	produces	12
9	consumes	84
161	produces	12
126	produces	51
31	consumes	98
130	produces	52
49	consumes	120
9	consumes	153
35	consumes	126
24	consumes	90
135	produces	57
26	consumes	112
43	consumes	155
151	produces	18
88	produces	45
16	consumes	74
112	produces	25
83	produces	40
114	produces	27
40	consumes	147
39	consumes	133
52	consumes	126
82	produces	12
73	produces	7
132	produces	50
164	produces	32
3	consumes	128
14	consumes	93
137	produces	61
130	produces	13
18	consumes	150
79	produces	70
57	consumes	84
64	consumes	87
152	produces	42
43	consumes	113
136	produces	18
48	consumes	134
53	consumes	122
153	produces	20
65	consumes	84
22	consumes	165
131	produces	39
142	produces	9
19	consumes	85
144	produces	9
160	produces	30
135	produces	42
90	produces	42
147	produces	3
38	consumes	101
133	produces	20
42	consumes	154
124	produces	42
58	consumes	116
87	produces	40
20	consumes	144
128	produces	18
9	consumes	86
49	consumes	135
46	consumes	104
43	consumes	102
68	consumes	160
